^C:\USERS\МУСТАЕВ РАВИЛЬ\DOCUMENTS\VISUAL STUDIO 2015\PROJECTS\ФАКТОРИЗАЦИЯ ЧИСЛА\ФАКТОРИЗАЦИЯ ЧИСЛА\DEBUG\SOURCE.OBJ
C:\USERS\Мустаев Равиль\DOCUMENTS\VISUAL STUDIO 2015\PROJECTS\Факторизация числа\DEBUG\Факторизация числа.ILK
C:\USERS\Мустаев Равиль\DOCUMENTS\VISUAL STUDIO 2015\PROJECTS\Факторизация числа\DEBUG\Факторизация числа.EXE
C:\USERS\МУСТАЕВ РАВИЛЬ\DOCUMENTS\VISUAL STUDIO 2015\PROJECTS\ФАКТОРИЗАЦИЯ ЧИСЛА\DEBUG\ФАКТОРИЗАЦИЯ ЧИСЛА.PDB
^C:\USERS\МУСТАЕВ РАВИЛЬ\DESKTOP\УЧЁБА 4 КУРС\ONEDRIVE\КРИПТОГРАФИЧЕСКИЕ МЕТОДЫ ЗАЩИТЫ ИНФОРМАЦИИ\ЛАБОРАТОРНЫЕ РАБОТЫ\ФАКТОРИЗАЦИЯ ЧИСЛА\ФАКТОРИЗАЦИЯ ЧИСЛА\DEBUG\SOURCE.OBJ
C:\USERS\Мустаев Равиль\DESKTOP\учёба 4 курс\ONEDRIVE\Криптографические методы защиты информации\Лабораторные работы\Факторизация числа\DEBUG\Факторизация числа.ILK
C:\USERS\Мустаев Равиль\DESKTOP\учёба 4 курс\ONEDRIVE\Криптографические методы защиты информации\Лабораторные работы\Факторизация числа\DEBUG\Факторизация числа.EXE
C:\USERS\МУСТАЕВ РАВИЛЬ\DESKTOP\УЧЁБА 4 КУРС\ONEDRIVE\КРИПТОГРАФИЧЕСКИЕ МЕТОДЫ ЗАЩИТЫ ИНФОРМАЦИИ\ЛАБОРАТОРНЫЕ РАБОТЫ\ФАКТОРИЗАЦИЯ ЧИСЛА\DEBUG\ФАКТОРИЗАЦИЯ ЧИСЛА.PDB
