﻿C:\Program Files (x86)\MSBuild\Microsoft.Cpp\v4.0\V140\Microsoft.CppBuild.targets(392,5): warning MSB8028: The intermediate directory (Debug\) contains files shared from another project (Элептическая кривая.vcxproj).  This can lead to incorrect clean and rebuild behavior.
  Source.cpp
c:\users\мустаев равиль\desktop\учёба 4 курс\onedrive\криптографические методы защиты информации\лабораторные работы\эллиптическая кривая\элептическая кривая\source.cpp(21): warning C4244: инициализация: преобразование "double" в "unsigned __int64", возможна потеря данных
c:\users\мустаев равиль\desktop\учёба 4 курс\onedrive\криптографические методы защиты информации\лабораторные работы\эллиптическая кривая\элептическая кривая\source.cpp(30): warning C4244: =: преобразование "double" в "unsigned __int64", возможна потеря данных
c:\users\мустаев равиль\desktop\учёба 4 курс\onedrive\криптографические методы защиты информации\лабораторные работы\эллиптическая кривая\элептическая кривая\source.cpp(31): warning C4244: =: преобразование "double" в "unsigned __int64", возможна потеря данных
c:\users\мустаев равиль\desktop\учёба 4 курс\onedrive\криптографические методы защиты информации\лабораторные работы\эллиптическая кривая\элептическая кривая\source.cpp(34): warning C4244: return: преобразование "unsigned __int64" в "int", возможна потеря данных
  Элептическая кривая.vcxproj -> C:\Users\Мустаев Равиль\Desktop\учёба 4 курс\OneDrive\Криптографические методы защиты информации\Лабораторные работы\Эллиптическая кривая\Debug\Эллиптическая кривая.exe
  Элептическая кривая.vcxproj -> C:\Users\Мустаев Равиль\Desktop\учёба 4 курс\OneDrive\Криптографические методы защиты информации\Лабораторные работы\Эллиптическая кривая\Debug\Эллиптическая кривая.pdb (Full PDB)
